#----------Caste races----------#
defined_text = { # this one creates a title "HARIMARI|HUMAN|BOTH" with varying colours
    name = caste_races_title_check
    random = no

    text = {
        localisation_key = caste_races_title_check_harimari_tt
        trigger = {
            has_country_flag = harimari_in_uppercastes #Are harimari alone in caste?
            NOT = {
                has_country_flag = human_in_uppercastes
                # add any races here
            }
        }
    }
    text = {
        localisation_key = caste_races_title_check_human_tt
        trigger = {
            has_country_flag = human_in_uppercastes #Are humans alone in caste?
            NOT = {
                has_country_flag = harimari_in_uppercastes
                # add any races here
            }
        }
    }
    text = {
        localisation_key = caste_races_title_check_both_tt
        trigger = {
            has_country_flag = harimari_in_uppercastes #harimari share caste
            has_country_flag = human_in_uppercastes
            # add any races here
        }
    }
}

defined_text = { # this one returns "harimari"/"humans"/"harimar and humans"
    name = caste_races_check
    random = no

    text = {
        localisation_key = caste_races_check_harimari_tt
        trigger = {
            has_country_flag = harimari_in_uppercastes #Are harimari alone in caste?
            NOT = {
                has_country_flag = human_in_uppercastes
                # add any races here
            }
        }
    }
    text = {
        localisation_key = caste_races_check_human_tt
        trigger = {
            has_country_flag = human_in_uppercastes #Are humans alone in caste?
            NOT = {
                has_country_flag = harimari_in_uppercastes
                # add any races here
            }
        }
    }
    text = {
        localisation_key = caste_races_check_both_tt
        trigger = {
            has_country_flag = harimari_in_uppercastes #harimari share caste
            has_country_flag = human_in_uppercastes
            # add any races here
        }
    }
}

defined_text = { # this one returns the modifiers for each race in caste
    name = caste_races_modifier_check
    random = no

    text = {
        localisation_key = caste_races_modifier_check_harimari_tt
        trigger = {
            has_country_flag = harimari_in_uppercastes #Are harimari alone in caste?
            NOT = {
                has_country_flag = human_in_uppercastes
                # add any races here
            }
        }
    }
    text = {
        localisation_key = caste_races_modifier_check_human_tt
        trigger = {
            has_country_flag = human_in_uppercastes #Are humans alone in caste?
            NOT = {
                has_country_flag = harimari_in_uppercastes
                # add any races here
            }
        }
    }
    text = {
        localisation_key = caste_races_modifier_check_both_tt
        trigger = {
            has_country_flag = harimari_in_uppercastes #harimari share caste
            has_country_flag = human_in_uppercastes
            # add any races here
        }
    }
}

defined_text = {
    name = harimari_in_uppercastes_check
    random = no

    text = {
        localisation_key = harimari_in_uppercastes_alone_tt
        trigger = {
            has_country_flag = harimari_in_uppercastes #Are harimari alone in caste?
            NOT = {
                has_country_flag = human_in_uppercastes
                # add any races here
            }
        }
    }
    text = {
        localisation_key = harimari_in_uppercastes_tt
        trigger = {
            has_country_flag = harimari_in_uppercastes #harimari share caste
            has_country_flag = human_in_uppercastes
            # add any races here
        }
    }

    text = {
        localisation_key = harimari_not_in_uppercastes_tt
        trigger = {
            always = yes
        }
    }
}

defined_text = {
    name = harimari_in_middlecastes_check
    random = no

    text = {
        localisation_key = harimari_in_middlecastes_alone_tt
        trigger = {
            has_country_flag = harimari_in_middlecastes #Are harimari alone in caste?
            NOT = {
                has_country_flag = human_in_middlecastes
                # add any races here
            }
        }
    }
    text = {
        localisation_key = harimari_in_middlecastes_tt
        trigger = {
            has_country_flag = harimari_in_middlecastes #harimari share caste
            has_country_flag = human_in_middlecastes
            # add any races here
        }
    }

    text = {
        localisation_key = harimari_not_in_middlecastes_tt
        trigger = {
            always = yes
        }
    }
}

defined_text = {
    name = harimari_in_lowercastes_check
    random = no

    text = {
        localisation_key = harimari_in_lowercastes_alone_tt
        trigger = {
            has_country_flag = harimari_in_lowercastes #Are harimari alone in caste?
            NOT = {
                has_country_flag = human_in_lowercastes
                # add any races here
            }
        }
    }
    text = {
        localisation_key = harimari_in_lowercastes_tt
        trigger = {
            has_country_flag = harimari_in_lowercastes #harimari share caste
            has_country_flag = human_in_lowercastes
            # add any races here
        }
    }

    text = {
        localisation_key = harimari_not_in_lowercastes_tt
        trigger = {
            always = yes
        }
    }
}

defined_text = {
    name = human_in_uppercastes_check
    random = no

    text = {
        localisation_key = human_in_uppercastes_alone_tt
        trigger = {
            has_country_flag = human_in_uppercastes #Are humans alone in caste?
            NOT = {
                has_country_flag = harimari_in_uppercastes
                # add any races here
            }
        }
    }
    text = {
        localisation_key = human_in_uppercastes_tt
        trigger = {
            has_country_flag = human_in_uppercastes #Humans share caste
            has_country_flag = harimari_in_uppercastes
            # add any races here
        }
    }

    text = {
        localisation_key = human_not_in_uppercastes_tt
        trigger = {
            always = yes
        }
    }
}

defined_text = {
    name = human_in_middlecastes_check
    random = no

    text = {
        localisation_key = human_in_middlecastes_alone_tt
        trigger = {
            has_country_flag = human_in_middlecastes #Are humans alone in caste?
            NOT = {
                has_country_flag = harimari_in_middlecastes
                # add any races here
            }
        }
    }
    text = {
        localisation_key = human_in_middlecastes_tt
        trigger = {
            has_country_flag = human_in_middlecastes #Humans share caste
            has_country_flag = harimari_in_middlecastes
            # add any races here
        }
    }

    text = {
        localisation_key = human_not_in_middlecastes_tt
        trigger = {
            always = yes
        }
    }
}

defined_text = {
    name = human_in_lowercastes_check
    random = no

    text = {
        localisation_key = human_in_lowercastes_alone_tt
        trigger = {
            has_country_flag = human_in_lowercastes #Are humans alone in caste?
            NOT = {
                has_country_flag = harimari_in_lowercastes
                # add any races here
            }
        }
    }
    text = {
        localisation_key = human_in_lowercastes_tt
        trigger = {
            has_country_flag = human_in_lowercastes #Humans share caste
            has_country_flag = harimari_in_lowercastes
            # add any races here
        }
    }

    text = {
        localisation_key = human_not_in_lowercastes_tt
        trigger = {
            always = yes
        }
    }
}

#-------Caste Fluidity-------#
defined_text = { # this one creates a title "RIGID|NEUTRAL|FLUID" with varying colours
    name = caste_fluidity_title_check
    random = no

    text = {
        localisation_key = caste_fluidity_title_check_rigid_tt
        trigger = {
            caste_fluidity_is_rigid = yes
        }
    }
    text = {
        localisation_key = caste_fluidity_title_check_neutral_tt
        trigger = {
            caste_fluidity_is_neutral = yes
        }
    }
    text = {
        localisation_key = caste_fluidity_title_check_fluid_tt
        trigger = {
            caste_fluidity_is_fluid = yes
        }
    }
}

defined_text = { # this results in Rigid/Neutral/Fluid in loca. 
    name = caste_fluidity_check
    random = no

    text = {
        localisation_key = caste_fluidity_check_rigid_tt
        trigger = {
            caste_fluidity_is_rigid = yes
        }
    }
    text = {
        localisation_key = caste_fluidity_check_neutral_tt
        trigger = {
            caste_fluidity_is_neutral = yes
        }
    }
    text = {
        localisation_key = caste_fluidity_check_fluid_tt
        trigger = {
            caste_fluidity_is_fluid = yes
        }
    }
}

defined_text = { # this results in Rigid/Neutral/Fluid in loca. 
    name = caste_fluidity_modifier_check
    random = no

    text = {
        localisation_key = caste_fluidity_modifier_check_rigid_tt
        trigger = {
            caste_fluidity_is_rigid = yes
        }
    }
    text = {
        localisation_key = caste_fluidity_modifier_check_neutral_tt
        trigger = {
            caste_fluidity_is_neutral = yes
        }
    }
    text = {
        localisation_key = caste_fluidity_modifier_check_fluid_tt
        trigger = {
            caste_fluidity_is_fluid = yes
        }
    }
}


defined_text = {
	name = casteFluidityBar
	random = no
	
	text = {
		localisation_key = casteFluidityBarFull
		trigger = {
			check_variable = { which = casteFluidityVar value = 96 }
		}
	}
	text = {
		localisation_key = casteFluidityBar9
		trigger = {
			check_variable = { which = casteFluidityVar value = 86 }
		}
	}
	text = {
		localisation_key = casteFluidityBar8
		trigger = {
			check_variable = { which = casteFluidityVar value = 76 }
		}
	}
	text = {
		localisation_key = casteFluidityBar7
		trigger = {
			check_variable = { which = casteFluidityVar value = 66 }
		}
	}
	text = {
		localisation_key = casteFluidityBar6
		trigger = {
			check_variable = { which = casteFluidityVar value = 56 }
		}
	}
	text = {
		localisation_key = casteFluidityBar5
		trigger = {
			check_variable = { which = casteFluidityVar value = 46 }
		}
	}
	text = {
		localisation_key = casteFluidityBar4
		trigger = {
			check_variable = { which = casteFluidityVar value = 36 }
		}
	}
	text = {
		localisation_key = casteFluidityBar3
		trigger = {
			check_variable = { which = casteFluidityVar value = 26 }
		}
	}
	text = {
		localisation_key = casteFluidityBar2
		trigger = {
			check_variable = { which = casteFluidityVar value = 16 }
		}
	}
	text = {
		localisation_key = casteFluidityBar1
		trigger = {
			check_variable = { which = casteFluidityVar value = 6 }
		}
	}
	text = {
		localisation_key = casteFluidityBar0
		trigger = {
			NOT = { check_variable = { which = casteFluidityVar value = 6 } }
		}
	}
}