

namespace = asheniande




#unification sentiment
country_event = {
	id = asheniande.2
	title = asheniande.2.t
	desc = asheniande.2.d
	picture = ANGRY_MOB_eventPicture
	
	is_triggered_only = yes
	
	option = {
		name = asheniande.2.a
		ai_chance = { factor = 100 }
		
		A59 = {
			
			add_estate_loyalty_modifier = {
				estate = estate_vampires
				desc = asheniande_propoganda
				loyalty = -25
				duration = 18250
	    	}
			add_estate_loyalty_modifier = {
				estate = estate_nobles
				desc = asheniande_propoganda
				loyalty = -25
				duration = 18250
	    	}
			add_country_modifier = {
				name = "unification_sentiment"
				duration = 1825
			}
		}
	}
}
#treaty of gisden
country_event = {
	id = asheniande.3
	title = asheniande.3.t
	desc = asheniande.3.d
	picture = ANGRY_MOB_eventPicture
	
	is_triggered_only = yes
	#arannen recieves whole area
	option = {
		name = asheniande.3.a
		ai_chance = { 
			factor =  100
			modifier = {
				factor = 0
				gisden_area = {
					owned_by = A60
				}
			}
			modifier = {
				factor = 0
				A60 = {
					army_strength = {
						who = A72
						value = 1.2
					}
				}
			} 
		}
		add_truce_with = A60
		remove_historical_friend = A60
		A60 = {
			remove_historical_friend = A72
		}
		add_historical_rival = A60
	}
	
	#asheniande gets upsfield
	option = {
		name = asheniande.3.b
		ai_chance = { 
			factor =  100
			modifier = {
				factor = 0
				312 = {owned_by = A60}	
			}
			modifier = {
				factor = 0
				AND = {
					321 = {owned_by = A60}
					A60 = {
						army_strength = {
							who = A72
							value = 1.2
						}
					}
				}
			}
			modifier = {
				factor = 0
				AND = {
					321 = {owned_by = A72}
					312 = {owned_by = A72}
					326 = {owned_by = A72}
					
					A72 = {
						army_strength = {
							who = A60
							value = 1.2
						}
					}
				}
				
			}	
		}
		321 = {
			cede_province = A60
			remove_claim = A72
		}
		312 = {
			cede_province = A72
		}
		add_truce_with = A60
	}
		
	#asheniande gets quintenbury and upsfield
	option = {
		name = asheniande.3.c
		ai_chance = { 
			factor =  100
			modifier = {
				factor = 0	
				#OR = {
					AND = {
						321 = {owned_by = A60}
						NOT = {
							A60 = {
								army_strength = {
									who = A72
									value = 1.2
								}
							}
						}
					}

				#}
			}
			modifier = {
				factor = 0
				321 = {owned_by = A72}
				312 = {owned_by = A72}
				326 = {owned_by = A72}
			}
		}
		321 = {
			cede_province = A60
			remove_claim = A72
		}	
		312 = {
			cede_province = A60
			remove_claim = A72
		}	
		add_truce_with = A60
	}
}
#move capital to ravenhill
country_event = {
	id = asheniande.4
	title = asheniande.4.t
	desc = asheniande.4.d
	picture = ANGRY_MOB_eventPicture
	
	is_triggered_only = yes
	
	option = {
		name = asheniande.4.a
		ai_chance = { factor = 35 }
	}
	option = {
		name = asheniande.4.b
		ai_chance = { factor = 65 }
		A60 = {
			set_capital = 431
		}
	}
}
#hostile blood court takeover
country_event = {
	id = asheniande.5
	title = asheniande.5.t
	desc = asheniande.5.d
	picture = DIPLOMACY_eventPicture

	is_triggered_only = yes
	immediate = {
		every_country = {
   			limit = {
       			has_country_flag = founded_blood_court
   			}
   			save_global_event_target_as = blood_court_founder
		}
	}
	option = {
		name = asheniande.5.a
		ai_chance = { 
			factor = 95 
		}
		add_stability = -1
		event_target:blood_court_founder = {
			country_event = {
							id = asheniande.7
							days = 5
							random = 5
			}
		}
		hidden_effect = {
			if = {
				limit = {
					has_estate_privilege = estate_vampires_organization_vampiric_emigres
				}
				remove_estate_privilege = estate_vampires_organization_vampiric_emigres
			}
			if = {
				limit = {
					has_estate_privilege = estate_vampires_organization_bloody_aristocracy
				}
				remove_estate_privilege = estate_vampires_organization_bloody_aristocracy
			}
			if = {
				limit = {
					has_estate_privilege = estate_vampires_organization_vampires_lord
				}
				remove_estate_privilege = estate_vampires_organization_vampires_lord
			}
		}
		if = {
			limit = {
				has_estate_privilege = estate_vampires_law_open_rule
			}
			remove_estate_privilege = estate_vampires_law_open_rule
			set_estate_privilege = estate_vampires_law_traditional_masquerade
		}
		set_estate_privilege = estate_vampires_organization_the_blood_court
	}
	option = {
		name = asheniande.5.b
		ai_chance = {
			factor = 5
		}
		event_target:blood_court_founder = {
			country_event = {
				id = asheniande.6
				days = 5
				random = 5
			}
		}
	}
	
}

#Happens for blood court founder: offer declined.
country_event = {
	id = asheniande.6
	title = asheniande.6.t
	desc = asheniande.6.d
	picture = DIPLOMACY_eventPicture

	is_triggered_only = yes

	option = {
		name = asheniande.6.a
		ai_chance = { 
			factor = 100 
		}
		
	}
}
#happens for blood court founder: Offer accepted.
country_event = {
	id = asheniande.7
	title = asheniande.7.t
	desc = asheniande.7.d
	picture = DIPLOMACY_eventPicture

	is_triggered_only = yes

	option = {
		name = asheniande.7.a
		ai_chance = { 
			factor = 50
		}
		add_opinion = {
			who = FROM
			modifier = blood_court_membership	
		}
		reverse_add_opinion = {
			who = FROM
			modifier = blood_court_membership
		}
		
	}
}
#emigres have landed
country_event = {
	id = asheniande.8
	title = asheniande.8.t
	desc = asheniande.8.d
	picture = DIPLOMACY_eventPicture

	is_triggered_only = yes
	
	option = {
		name = asheniande.8.a
		ai_chance = { 
			factor = 100 
		}
	}
}
#blood aristocracy notification
country_event = {
	id = asheniande.9
	title = asheniande.9.t
	desc = asheniande.9.d
	picture = DIPLOMACY_eventPicture

	is_triggered_only = yes

	option = {
		name = asheniande.9.a
		ai_chance = { 
			factor = 100 
		}
		
	}
}
#emigres failed
country_event = {
	id = asheniande.10
	title = asheniande.10.t
	desc = asheniande.10.d
	picture = DIPLOMACY_eventPicture

	is_triggered_only = yes
	
	option = {
		name = asheniande.10.a
		ai_chance = { 
			factor = 100 
		}
		change_estate_land_share = {
				estate = estate_vampires
				share = 1
		}
	}
}

# UNUSED infiltration ---FOR BLOOD COURT REVAMP---
#country_event = {
#	id = asheniande.11
#	title = asheniande.11.t
#	desc = asheniande.11.d
#	picture = DIPLOMACY_eventPicture
#
#	is_triggered_only = yes
#
#	
#	option = {
#		name = asheniande.7.b
#		ai_chance = { 
#			factor = 50
#		}
#		ROOT = {
#			add_country_modifier = {
#				name = vampire_infiltration
#				duration = -1
#			}
#		}
#		
#	}

country_event = {
	id = asheniande.12
	title = vampires_estate_events.3.t
	desc = vampires_estate_events.3.d
	picture = NOBLE_ESTATE_eventPicture
	
	trigger = {
		has_estate = estate_vampires
		has_estate_privilege = estate_vampires_law_traditional_masquerade
		is_triggered_only = yes
	}
	

	#Accept the offer
	option = {
		name = vampires_estate_events.3.a
		ai_chance = { factor = 80 }
		add_adm_power = -60
		remove_estate_privilege = estate_vampires_law_traditional_masquerade
		set_estate_privilege = estate_vampires_law_state_collusion_masquerade
	}
	
	#Refuse the offer
	option = {
		name = vampires_estate_events.3.b
		ai_chance = { factor = 20 }
		add_prestige = 10
		add_estate_loyalty_modifier = {
			estate = estate_vampires
			desc = "Refused State Collusion: "
			loyalty = -30
			duration = 7300
		}
	}
}
