
namespace = seinathil

#Migrants Flock
country_event = {
	id = seinathil.1
	title = seinathil.1.t
	desc = seinathil.1.d
	picture = CITY_VIEW_eventPicture
	
	is_triggered_only = yes
	
	option = {
		name = seinathil.1.a
		ai_chance = { factor = 50 }
		916 = {
			add_base_tax = 3
			add_base_production = 3
			add_base_manpower = 3
		}

	}
	option = {
		name = seinathil.1.b
		ai_chance = { factor = 50 }
		trigger = {
			owns_core_province = 274
		}
		274 = {
			add_base_tax = 3
			add_base_production = 3
			add_base_manpower = 3
		}
	}
	option = {
		name = seinathil.1.c
		ai_chance = { factor = 0 }
		trigger = {
			owns_core_province = 333
		}
		333 = {
			add_base_tax = 3
			add_base_production = 3
			add_base_manpower = 3
		}

	}
	option = {
		name = seinathil.1.e
		ai_chance = { factor = 0 }
		trigger = {
			owns_core_province = 279
		}
		279 = {
			add_base_tax = 3
			add_base_production = 3
			add_base_manpower = 3
		}

	}

}


#Notestock
country_event = {
	id = seinathil.2
	title = seinathil.2.t
	desc = seinathil.2.d
	picture = CULTURE_eventPicture
	
	is_triggered_only = yes
	trigger = {
		always = yes
	}
	
	# Tax the visitors
	option = {
		name = seinathil.2.a
		ai_chance = { factor = 50 }
		add_years_of_income = 0.25
	}

	# Another great year for Notestock!
	option = {
		name = seinathil.2.f
		ai_chance = { factor = 50 }
		add_prestige = 20
	}
	# Convince some of the visitors to join the army!
	option = {
		name = seinathil.2.b
		ai_chance = { factor = 0 }
		trigger = {
			prestige = 50
		}
		add_yearly_manpower = 0.5
	}
	#Convince some of the visitors to stay
	option = {
		name = seinathil.2.c
		ai_chance = { factor = 0 }
		trigger = {
			prestige = 80
		}
		add_country_modifier = {
			name = "A90_notestock_2"
			duration = 1825
		}

	}
	# Use Notestock to stabilize some political issues
	option = {
		name = seinathil.2.g
		ai_chance = { factor = 0 }
		trigger = {
			prestige = 80
		}
		add_stability_or_adm_power = yes


	}
	# Suggest more propaganda music for our soldiers...
	option = {
		name = seinathil.2.e
		ai_chance = { factor = 0 }
		trigger = {
			prestige = 80
		}
		add_country_modifier = {
			name = "A90_notestock_3"
			duration = 1825
		}
	}
		


	after = {
		hidden_effect = {
			country_event = {
				id = seinathil.2
				days = 1825 # 5 years
			}
		}
	}
}

#offer sent to the Skalds
country_event = {
	id = seinathil.3
	title = seinathil.3.t
	desc = seinathil.3.d
	picture = TRADEGOODS_eventPicture
	
	is_triggered_only = yes
	
	trigger = {
		always = yes
	}
	
	#Accept the offer
	option = {
		name = seinathil.3.a
		ai_chance = {
			factor = 100
		}
		A90 = {
			country_event = {
				id = seinathil.4
			}
			add_historical_friend = ROOT
		}
		ROOT = {
			add_historical_friend = A90
			create_alliance = A90
			set_country_flag = seinathil_skald_friend
		}
	}
	
	#Refuse the offer
	
	option = {
		name = seinathil.3.b
		ai_chance = {
			factor = 0
		}
		A90 = {
			country_event = {
				id = seinathil.5
			}
			remove_opinion = {
				who = ROOT
				modifier = rejected_alliance
			}
		}
	}
}

#Skalds Accepted
country_event = {
	id = seinathil.4
	title = seinathil.4.t
	desc = seinathil.4.d
	picture = TRADEGOODS_eventPicture
	
	is_triggered_only = yes
	
	trigger = {
		always = yes
	}
	
	option = {
		name = seinathil.4.a
		add_prestige = 10
	}
}

#Skalds Rejected
country_event = {
	id = seinathil.5
	title = seinathil.5.t
	desc = seinathil.5.d
	picture = TRADEGOODS_eventPicture
	
	is_triggered_only = yes
	
	trigger = {
		always = yes
	}
	
	option = {
		name = seinathil.5.a
		add_prestige = -10
	}
}
#Bardic Allies Events

country_event = {
	id = seinathil.6
	title = seinathil.6.t
	desc = seinathil.6.d
	picture = BATTLE_eventPicture
	
	trigger = {
		tag = A90
		is_at_war = yes
		has_country_flag = A90_bardic_mod1
		NOT = { OR = {has_country_modifier = A90_bardic_influence_1}
		}
		any_ally = {
			has_country_flag = A90_bardic_ally
			is_in_war = {
				participants = A90
			}
		}
	}
	mean_time_to_happen = {
		months = 1
	}
	hidden = yes
	option = {
		A90 = {
			add_country_modifier = {
				name = "A90_bardic_influence_1"
				duration = -1
			}
		}
		every_ally = {
			limit = {
				has_country_flag = A90_bardic_ally
			}
			add_country_modifier = {
				name = "A90_bardic_influence_1"
				duration = -1
			}
		}
				
	}
}

country_event = {
	id = seinathil.7
	title = seinathil.7.t
	desc = seinathil.7.d
	picture = BATTLE_eventPicture
	
	trigger = {
		tag = A90
		is_at_war = yes
		has_country_flag = A90_bardic_mod2
		NOT = { OR = {has_country_modifier = A90_bardic_influence_2}
		}
		any_ally = {
			has_country_flag = A90_bardic_ally
			is_in_war = {
				participants = A90
			}
		}
	}
	mean_time_to_happen = {
		months = 1
	}
	hidden = yes
	option = {
		A90 = {
			add_country_modifier = {
				name = "A90_bardic_influence_2"
				duration = -1
			}
		}
		every_ally = {
			limit = {
				has_country_flag = A90_bardic_ally
			}
			add_country_modifier = {
				name = "A90_bardic_influence_2"
				duration = -1
			}
		}
				
	}
}

country_event = {
	id = seinathil.8
	title = seinathil.8.t
	desc = seinathil.8.d
	picture = BATTLE_eventPicture
	
	trigger = {
		tag = A90
		is_at_war = yes
		has_country_flag = A90_bardic_mod3
		NOT = { OR = {has_country_modifier = A90_bardic_influence_3}
		}
		any_ally = {
			has_country_flag = A90_bardic_ally
			is_in_war = {
				participants = A90
			}
		}
	}
	mean_time_to_happen = {
		months = 1
	}
	hidden = yes
	option = {
		A90 = {
			add_country_modifier = {
				name = "A90_bardic_influence_3"
				duration = -1
			}
		}
		every_ally = {
			limit = {
				has_country_flag = A90_bardic_ally
			}
			add_country_modifier = {
				name = "A90_bardic_influence_3"
				duration = -1
			}
		}
				
	}
}

country_event = {
	id = seinathil.9
	title = seinathil.9.t
	desc = seinathil.9.d
	picture = BATTLE_eventPicture
	
	trigger = {
		tag = A90
		is_at_war = yes
		has_country_flag = A90_bardic_mod4
		NOT = { OR = {has_country_modifier = A90_bardic_influence_4}
		}
		any_ally = {
			has_country_flag = A90_bardic_ally
			is_in_war = {
				participants = A90
			}
		}
	}
	mean_time_to_happen = {
		months = 1
	}
	hidden = yes
	option = {
		A90 = {
			add_country_modifier = {
				name = "A90_bardic_influence_4"
				duration = -1
			}
		}
		every_ally = {
			limit = {
				has_country_flag = A90_bardic_ally
			}
			add_country_modifier = {
				name = "A90_bardic_influence_4"
				duration = -1
			}
		}
				
	}
}

#The Anbennar Dream

country_event = {
	id = seinathil.10
	title = seinathil.10.t
	desc = seinathil.10.d
	picture = THEATRE_eventPicture
	
	is_triggered_only = yes
	
	option = {
		name = seinathil.10.a
		ai_chance = { factor = 34 }
		set_global_flag = A90_dream_war
		add_country_modifier = {
			name = "A90_together_in_war"
			duration = -1
		}
		every_country = {
			limit = { 
				is_part_of_hre = yes 
				NOT = { tag = A90 }
			}
			country_event = {
				id = seinathil.11
			}

		}
	}
	option = {
		name = seinathil.10.b
		ai_chance = { factor = 33 }
		set_global_flag = A90_dream_peace
		add_country_modifier = {
			name = "A90_together_in_peace"
			duration = -1
		}
		every_country = {
			limit = { 
				is_part_of_hre = yes 
				NOT = { tag = A90 }
			}
			country_event = {
				id = seinathil.12
			}

		}
	}
	option = {
		name = seinathil.10.c
		ai_chance = { factor = 33 }
		set_global_flag = A90_dream_strategy
		add_country_modifier = {
			name = "A90_together_in_strategy"
			duration = -1
		}
		every_country = {
			limit = { 
				is_part_of_hre = yes 
				NOT = { tag = A90 }
			}
			country_event = {
				id = seinathil.13
			}

		}
	}


}
#Anbennar Dream sub-events
country_event = {
	id = seinathil.11
	title = seinathil.11.t
	desc = seinathil.11.d
	picture = THEATRE_eventPicture
	
	is_triggered_only = yes
	
	option = {
		name = seinathil.11.a
		add_country_modifier = {
			name = "A90_together_in_peace"
			duration = -1
		}
	}
}

country_event = {
	id = seinathil.12
	title = seinathil.12.t
	desc = seinathil.12.d
	picture = THEATRE_eventPicture
	
	is_triggered_only = yes
	
	
	option = {
		name = seinathil.12.a
		add_country_modifier = {
			name = "A90_together_in_war"
			duration = -1
		}
	}
}

country_event = {
	id = seinathil.13
	title = seinathil.13.t
	desc = seinathil.13.d
	picture = THEATRE_eventPicture
	
	is_triggered_only = yes
	
	
	option = {
		name = seinathil.13.a
		add_country_modifier = {
			name = "A90_together_in_strategy"
			duration = -1
		}
	}
}
#Form the Seincourt
country_event = {
	id = seinathil.14
	title = seinathil.14.t
	desc = seinathil.14.d
	picture = COURT_eventPicture
	
	is_triggered_only = yes
	
	
	option = {
		name = seinathil.14.a
		if = {
			limit = { has_estate_privilege = estate_mages_organization_state }
			remove_estate_privilege = estate_mages_organization_state
		}
		if = {
			limit = { has_estate_privilege = estate_mages_organization_guilds }
			remove_estate_privilege = estate_mages_organization_guilds
		}
		if = {
			limit = { has_estate_privilege = estate_mages_organization_religious }
			remove_estate_privilege = estate_mages_organization_religious
		}
		if = {
			limit = { has_estate_privilege = estate_mages_organization_magisterium }
			remove_estate_privilege = estate_mages_organization_magisterium
		}
		set_estate_privilege = estate_mages_organization_bardic_college
		
		}
	
	}


#Notestock Goes Up In Flames
country_event = {
	id = seinathil.15
	title = seinathil.15.t
	desc = seinathil.15.d
	picture = TRADEGOODS_eventPicture
	
	is_triggered_only = yes
	
	trigger = {
	mission_completed = seinathil_climactic_concerto
	NOT = { prestige = 25 }
	
	}
	
	mean_time_to_happen = {
		days = 1
	}
	
	option = {		
		name = "seinathil.15.a"
		add_stability = -1
		add_prestige = -10
	}
}

#Modern College, Mage Heir

country_event = {
	id = seinathil.16
	title = seinathil.16.t
	desc = seinathil.16.d
	picture = GREAT_BUILDING_eventPicture
	
	trigger = {
		tag = A90
		has_regency = no
		has_government_attribute = heir
		government = monarchy
		NOT = {
			heir_has_mage_personality = yes
			has_heir_flag = heir_consort_mage_personality
		}
	}
	mean_time_to_happen = {
		months = 300
		modifier = {
			factor = 0.5
			has_reform = magical_elite_reform
		}
		modifier = {
			factor = 0.50
			OR = {
				ruler_has_mage_personality = yes
			}
		}
		modifier = {
			factor = 0.75
			OR = {
				ruler_has_personality = scholar_personality
			}
		}

	}
	hidden = yes
	option = {
		name = seinathil.16.a
		set_heir_mage_effect = yes	
	}
}

#Repairing Swansong

country_event = {
	id = seinathil.17
	title = seinathil.17.t
	desc = seinathil.17.d
	picture = COURT_eventPicture
	
	is_triggered_only = yes
	
	
	option = {
		name = seinathil.17.a
	}
}

#Swansong

country_event = {
	id = seinathil.18
	title = seinathil.18.t
	desc = seinathil.18.d
	picture = COURT_eventPicture
	
	is_triggered_only = yes
	
	
	option = {
		name = seinathil.18.a
		add_country_modifier = {
			name = A90_swansong_home 
			duration = -1
		}
	}
	option = {
		name = seinathil.18.b
		add_country_modifier = {
			name = A90_swansong_abroad
			duration = -1
		}
	}
	option = {
		name = seinathil.18.c
		custom_tooltip = seinathil_swansong_tt
		hidden_effect = {
			clr_country_flag = A90_bardic_mod4
			set_country_flag = A90_bardic_mod5
		}
	}
}

#Bardic Allies 5

country_event = {
	id = seinathil.19
	title = seinathil.19.t
	desc = seinathil.19.d
	picture = BATTLE_eventPicture
	
	trigger = {
		tag = A90
		is_at_war = yes
		has_country_flag = A90_bardic_mod5
		NOT = { OR = {has_country_modifier = A90_bardic_influence_5}
		}
		any_ally = {
			has_country_flag = A90_bardic_ally
			is_in_war = {
				participants = A90
			}
		}
	}
	mean_time_to_happen = {
		months = 1
	}
	hidden = yes
	option = {
		A90 = {
			add_country_modifier = {
				name = "A90_bardic_influence_5"
				duration = -1
			}
		}
		every_ally = {
			limit = {
				has_country_flag = A90_bardic_ally
			}
			add_country_modifier = {
				name = "A90_bardic_influence_5"
				duration = -1
			}
		}
				
	}
}

#Choose your Muse

country_event = {
	id = seinathil.20
	title = seinathil.20.t
	desc = seinathil.20.d
	picture = RELIGION_eventPicture
	
	is_triggered_only = yes
	
	
	option = {
		name = seinathil.20.a
		custom_tooltip = seinathil_ryala_god_tt
		hidden_effect = {
			set_country_flag = upgraded_ryala_muse
			if = {
				limit = { has_personal_deity = ryala }
				change_personal_deity = ryala_seinathil_muse
			}
		}
	}
	option = {
		name = seinathil.20.b
		custom_tooltip = seinathil_munas_god_tt
		hidden_effect = {
			set_country_flag = upgraded_munas_muse
			if = {
				limit = { has_personal_deity = munas_moonsinger }
				change_personal_deity = munas_seinathil_muse
			}
		}
	}
}


#Musical Ages

country_event = {
	id = seinathil.21
	title = seinathil.21.t
	desc = seinathil.21.d
	picture = CULTURE_eventPicture
	fire_only_once = yes
	trigger = {
		owns = 916
		has_institution = renaissance
		NOT = { has_country_flag = A90_bororc_period }
	}
	mean_time_to_happen = {
		months = 1
	}
	option = {
		name = seinathil.21.a
		set_global_flag = A90_renaissance_period
	}
}

country_event = {
	id = seinathil.22
	title = seinathil.22.t
	desc = seinathil.22.d
	picture = CULTURE_eventPicture
	fire_only_once = yes
	trigger = {
		owns = 916
		is_year = 1540
	}
	mean_time_to_happen = {
		months = 60
	}
	option = {
		name = seinathil.22.a
		set_global_flag = A90_bororc_period
		clr_global_flag = A90_renaissance_period
	}
}

country_event = {
	id = seinathil.23
	title = seinathil.23.t
	desc = seinathil.23.d
	picture = CULTURE_eventPicture
	fire_only_once = yes
	trigger = {
		owns = 916
		is_year = 1630
	}
	mean_time_to_happen = {
		months = 60
	}
	option = {
		name = seinathil.23.a
		set_global_flag = A90_elegance_period
		clr_global_flag = A90_bororc_period
	}
}

country_event = {
	id = seinathil.24
	title = seinathil.24.t
	desc = seinathil.24.d
	picture = CULTURE_eventPicture
	fire_only_once = yes
	trigger = {
		owns = 916
		is_year = 1725
	}
	mean_time_to_happen = {
		months = 60
	}
	option = {
		name = seinathil.24.a
		set_global_flag = A90_passionate_period
		clr_global_flag = A90_elegance_period
	}
}

#Renaissance Period

country_event = {
	id = seinathil.25
	title = seinathil.25.t
	desc = seinathil.25.d
	picture = CULTURE_eventPicture
	fire_only_once = yes
	trigger = {
		owns = 916
		has_global_flag = A90_renaissance_period
	}
	mean_time_to_happen = {
		months = 3600
	}
	option = {
		name = seinathil.25.a
		add_country_modifier = {
			name = "A90_laurens_tombsvale"
			duration = 3650
		}		
	}
}

country_event = {
	id = seinathil.26
	title = seinathil.26.t
	desc = seinathil.26.d
	picture = CULTURE_eventPicture
	fire_only_once = yes
	trigger = {
		owns = 916
		has_global_flag = A90_renaissance_period
	}
	mean_time_to_happen = {
		months = 3600
	}
	option = {
		name = seinathil.26.a
		add_country_modifier = {
			name = "A90_ademar_sil_seinathil"
			duration = 3650
		}		
	}
}

country_event = {
	id = seinathil.27
	title = seinathil.27.t
	desc = seinathil.27.d
	picture = CULTURE_eventPicture
	fire_only_once = yes
	trigger = {
		owns = 916
		has_global_flag = A90_renaissance_period
	}
	mean_time_to_happen = {
		months = 3600
	}
	option = {
		name = seinathil.27.a
		add_country_modifier = {
			name = "A90_sandur_lampman"
			duration = 3650
		}		
	}
}

country_event = {
	id = seinathil.28
	title = seinathil.28.t
	desc = seinathil.28.d
	picture = CULTURE_eventPicture
	fire_only_once = yes
	trigger = {
		owns = 916
		has_global_flag = A90_renaissance_period
	}
	mean_time_to_happen = {
		months = 3600
	}
	option = {
		name = seinathil.28.a
		add_country_modifier = {
			name = "A90_artorian_chandler"
			duration = 3650
		}		
	}
}

country_event = {
	id = seinathil.29
	title = seinathil.29.t
	desc = seinathil.29.d
	picture = CULTURE_eventPicture
	fire_only_once = yes
	trigger = {
		owns = 916
		has_global_flag = A90_renaissance_period
	}
	mean_time_to_happen = {
		months = 3600
	}
	option = {
		name = seinathil.29.a
		add_country_modifier = {
			name = "A90_obran_wotwocket"
			duration = 3650
		}		
	}
}

country_event = {
	id = seinathil.30
	title = seinathil.30.t
	desc = seinathil.30.d
	picture = CULTURE_eventPicture
	fire_only_once = yes
	trigger = {
		owns = 916
		has_global_flag = A90_renaissance_period
	}
	mean_time_to_happen = {
		months = 3600
	}
	option = {
		name = seinathil.30.a
		add_country_modifier = {
			name = "A90_finorian_woodwind"
			duration = 3650
		}		
	}
}

#Bororc Period


country_event = {
	id = seinathil.31
	title = seinathil.31.t
	desc = seinathil.31.d
	picture = CULTURE_eventPicture
	fire_only_once = yes
	trigger = {
		owns = 916
		has_global_flag = A90_bororc_period
	}
	mean_time_to_happen = {
		months = 3600
	}
	option = {
		name = seinathil.31.a
		274 = {
			add_province_modifier = {
				name = A90_borian_sil_notesbridge
				duration = 18250
			}
		}
	}
}

country_event = {
	id = seinathil.32
	title = seinathil.32.t
	desc = seinathil.32.d
	picture = CULTURE_eventPicture
	fire_only_once = yes
	trigger = {
		owns = 916
		has_global_flag = A90_bororc_period
	}
	mean_time_to_happen = {
		months = 3600
	}
	option = {
		name = seinathil.32.a
		add_country_modifier = {
			name = "A90_varok_skullhorn"
			duration = 3650
		}		
	}
}

country_event = {
	id = seinathil.33
	title = seinathil.33.t
	desc = seinathil.33.d
	picture = CULTURE_eventPicture
	fire_only_once = yes
	trigger = {
		owns = 916
		has_global_flag = A90_bororc_period
	}
	mean_time_to_happen = {
		months = 3600
	}
	option = {
		name = seinathil.33.a
		define_general = {
			name = "Grom Deepnote"
			fire = 0
			shock = 3
			manuever = 1
			siege = 4
		}
	}
}

country_event = {
	id = seinathil.34
	title = seinathil.34.t
	desc = seinathil.34.d
	picture = CULTURE_eventPicture
	fire_only_once = yes
	trigger = {
		owns = 916
		has_global_flag = A90_bororc_period
	}
	mean_time_to_happen = {
		months = 3600
	}
	option = {
		name = seinathil.34.a
		add_country_modifier = {
			name = "A90_darran_buddy_greatsmile"
			duration = 3650
		}		
	}
}

country_event = {
	id = seinathil.35
	title = seinathil.35.t
	desc = seinathil.35.d
	picture = CULTURE_eventPicture
	fire_only_once = yes
	trigger = {
		owns = 916
		has_global_flag = A90_bororc_period
	}
	mean_time_to_happen = {
		months = 3600
	}
	option = {
		name = seinathil.35.a
		add_country_modifier = {
			name = "A90_elran_preacher"
			duration = 3650
		}		
	}
}

country_event = {
	id = seinathil.36
	title = seinathil.36.t
	desc = seinathil.36.d
	picture = CULTURE_eventPicture
	fire_only_once = yes
	trigger = {
		owns = 916
		has_global_flag = A90_bororc_period
	}
	mean_time_to_happen = {
		months = 3600
	}
	option = {
		name = seinathil.36.a
		add_country_modifier = {
			name = "A90_musicians_popular_abroad"
			duration = 3650
		}		
	}
}

country_event = {
	id = seinathil.37
	title = seinathil.37.t
	desc = seinathil.37.d
	picture = CULTURE_eventPicture
	fire_only_once = yes
	trigger = {
		owns = 916
		has_global_flag = A90_elegance_period
	}
	mean_time_to_happen = {
		months = 3600
	}
	option = {
		name = seinathil.37.a
		define_general = {
			shock = 8
			fire = 4
			manuever = 1
			siege = 2
			name = "Jahelor 'Sixstrings'"
			trait = war_wizard_personality
		}	
	}
}

country_event = {
	id = seinathil.38
	title = seinathil.38.t
	desc = seinathil.38.d
	picture = CULTURE_eventPicture
	fire_only_once = yes
	trigger = {
		owns = 916
		has_global_flag = A90_elegance_period
	}
	mean_time_to_happen = {
		months = 3600
	}
	option = {
		name = seinathil.38.a
		add_country_modifier = {
			name = "A90_sheetmusic_tax"
			duration = 3650
		}		
	}
}

country_event = {
	id = seinathil.39
	title = seinathil.39.t
	desc = seinathil.39.d
	picture = CULTURE_eventPicture
	fire_only_once = yes
	trigger = {
		owns = 916
		has_global_flag = A90_elegance_period
	}
	mean_time_to_happen = {
		months = 3600
	}
	option = {
		name = seinathil.39.a
		add_country_modifier = {
			name = "A90_evin_singfingers"
			duration = 3650
		}		
	}
}

country_event = {
	id = seinathil.40
	title = seinathil.40.t
	desc = seinathil.40.d
	picture = CULTURE_eventPicture
	fire_only_once = yes
	trigger = {
		owns = 916
		has_global_flag = A90_elegance_period
	}
	mean_time_to_happen = {
		months = 3600
	}
	option = {
		name = seinathil.40.a
		add_country_modifier = {
			name = "A90_ludwig_mozzus"
			duration = 3650
		}		
	}
}

country_event = {
	id = seinathil.41
	title = seinathil.41.t
	desc = seinathil.41.d
	picture = CULTURE_eventPicture
	fire_only_once = yes
	trigger = {
		owns = 916
		has_global_flag = A90_elegance_period
	}
	mean_time_to_happen = {
		months = 3600
	}
	option = {
		name = seinathil.41.a
		add_country_modifier = {
			name = "A90_pierre_alexandre_commonfoot"
			duration = 3650
		}		
	}
}

country_event = {
	id = seinathil.42
	title = seinathil.42.t
	desc = seinathil.42.d
	picture = CULTURE_eventPicture
	fire_only_once = yes
	trigger = {
		owns = 916
		has_global_flag = A90_elegance_period
	}
	mean_time_to_happen = {
		months = 3600
	}
	option = {
		name = seinathil.42.a
		add_country_modifier = {
			name = "A90_peyter_broadhurst"
			duration = 3650
		}		
	}
}

country_event = {
	id = seinathil.43
	title = seinathil.43.t
	desc = seinathil.43.d
	picture = CULTURE_eventPicture
	fire_only_once = yes
	trigger = {
		owns = 916
		has_global_flag = A90_passionate_period
	}
	mean_time_to_happen = {
		months = 3600
	}
	option = {
		name = seinathil.43.a
		add_years_of_income = 1.0
	}
}

country_event = {
	id = seinathil.44
	title = seinathil.44.t
	desc = seinathil.44.d
	picture = CULTURE_eventPicture
	fire_only_once = yes
	trigger = {
		owns = 916
		has_global_flag = A90_passionate_period
	}
	mean_time_to_happen = {
		months = 3600
	}
	option = {
		name = seinathil.44.a
		add_country_modifier = {
			name = "A90_fanny_crocker"
			duration = 3650
		}		
	}
}

country_event = {
	id = seinathil.45
	title = seinathil.45.t
	desc = seinathil.45.d
	picture = CULTURE_eventPicture
	fire_only_once = yes
	trigger = {
		owns = 916
		has_global_flag = A90_passionate_period
	}
	mean_time_to_happen = {
		months = 3600
	}
	option = {
		name = seinathil.45.a
		add_country_modifier = {
			name = "A90_dak_highnote"
			duration = 3650
		}		
	}
}

country_event = {
	id = seinathil.46
	title = seinathil.46.t
	desc = seinathil.46.d
	picture = CULTURE_eventPicture
	fire_only_once = yes
	trigger = {
		owns = 916
		has_global_flag = A90_passionate_period
	}
	mean_time_to_happen = {
		months = 3600
	}
	option = {
		name = seinathil.46.a
		add_country_modifier = {
			name = "A90_kaland_sikopoksimaiks"
			duration = 3650
		}		
	}
}

country_event = {
	id = seinathil.47
	title = seinathil.47.t
	desc = seinathil.47.d
	picture = CULTURE_eventPicture
	fire_only_once = yes
	trigger = {
		owns = 916
		has_global_flag = A90_passionate_period
	}
	mean_time_to_happen = {
		months = 3600
	}
	option = {
		name = seinathil.47.a
		add_country_modifier = {
			name = "A90_caenlin_woodsong"
			duration = 3650
		}		
	}
}

country_event = {
	id = seinathil.48
	title = seinathil.48.t
	desc = seinathil.48.d
	picture = CULTURE_eventPicture
	fire_only_once = yes
	trigger = {
		owns = 916
		has_global_flag = A90_passionate_period
	}
	mean_time_to_happen = {
		months = 3600
	}
	option = {
		name = seinathil.48.a
		add_country_modifier = {
			name = "A90_arabela_sina_gren"
			duration = 3650
		}		
	}
}

#Bardic Warmage

country_event = {
	id = seinathil.49
	title = seinathil.49.t
	desc = seinathil.49.d
	picture = DHIMMI_ESTATE_eventPicture
	
	trigger = {
		has_estate = estate_mages
		has_estate_privilege = estate_mages_bardic_general
	}
	
	mean_time_to_happen = {
		years = 50
		modifier = {
			factor = 0.9
			estate_influence = {
				estate = estate_mages
				influence = 20
			}
		}
		modifier = {
			factor = 0.9
			estate_influence = {
				estate = estate_mages
				influence = 40
			}
		}
		modifier = {
			factor = 0.9
			estate_influence = {
				estate = estate_mages
				influence = 60
			}
		}
		modifier = {
			factor = 0.9
			estate_influence = {
				estate = estate_mages
				influence = 80
			}
		}
		modifier = {
			factor = 0.9
			estate_influence = {
				estate = estate_mages
				influence = 100
			}
		}
		modifier = {
			factor = 2
			NOT = {
				estate_loyalty = {
					estate = estate_mages
					loyalty = 30
				}
			}
		}
		modifier = {
			factor = 2
			NOT = {
				estate_loyalty = {
					estate = estate_mages
					loyalty = 60
				}
			}
		}
	}

	option = {
		name = mages_estate_events.0.a #Ok
		
		create_war_wizard_effect = yes
	}
}