namespace = khom_civilwar

#startup events
country_event = { #Ma Hoang startup event
	id = khom_civilwar.1
	title = khom_civilwar.1.t
	desc = khom_civilwar.1.d
	picture = FAT_WARRIORS_eventPicture
	
	fire_only_once = yes
	
	is_triggered_only = yes
	
	option = {
		name = khom_civilwar.1.a
		ai_chance = { factor = 100 }
		add_treasury = 400
		add_opinion = {
			who = Y71
			modifier = khom_civilwar_allied_in_war
		}
		reverse_add_opinion = {
			who = Y71
			modifier = khom_civilwar_allied_in_war
		}
	}
}

country_event = { #Hon Sai startup event
	id = khom_civilwar.2
	title = khom_civilwar.2.t
	desc = khom_civilwar.2.d
	picture = COURT_eventPicture
	
	fire_only_once = yes
	
	is_triggered_only = yes
	
	option = {
		name = khom_civilwar.2.a
		ai_chance = { factor = 100 }
		add_opinion = {
			who = Y72
			modifier = khom_civilwar_allied_in_war
		}
		reverse_add_opinion = {
			who = Y72
			modifier = khom_civilwar_allied_in_war
		}
		add_opinion = {
			who = Y68
			modifier = khom_civilwar_rebel_scum
		}
		reverse_add_opinion = {
			who = Y68
			modifier = khom_civilwar_rebel_scum
		}
		add_opinion = {
			who = Y64
			modifier = khom_civilwar_pirate_scum
		}
	}
}

country_event = { #Kudet Kai startup event
	id = khom_civilwar.3
	title = khom_civilwar.3.t
	desc = khom_civilwar.3.d
	picture = COURT_eventPicture
	
	fire_only_once = yes
	
	is_triggered_only = yes
	
	option = {
		name = khom_civilwar.3.a
		ai_chance = { factor = 100 }
		add_opinion = {
			who = Y71
			modifier = khom_civilwar_allied_in_war
		}
		reverse_add_opinion = {
			who = Y71
			modifier = khom_civilwar_allied_in_war
		}
	}
}

country_event = { #Chien Binhrung startup event
	id = khom_civilwar.4
	title = khom_civilwar.4.t
	desc = khom_civilwar.4.d
	picture = COURT_eventPicture
	
	fire_only_once = yes
	
	is_triggered_only = yes
	
	option = {
		name = khom_civilwar.4.a
		ai_chance = { factor = 100 }
		add_opinion = {
			who = Y72
			modifier = khom_civilwar_allied_in_war
		}
		reverse_add_opinion = {
			who = Y72
			modifier = khom_civilwar_allied_in_war
		}
	}
}

#people interfere
country_event = { #Verkal Ozovar choose whether to help Ma Hoang
	id = khom_civilwar.10
	title = khom_civilwar.10.t
	desc = khom_civilwar.10.d
	picture = DIPLOMAT_INTERROGATION_eventPicture
	
	fire_only_once = yes
	
	is_triggered_only = yes
	
	option = {	#of course we'll help
		name = khom_civilwar.10.a
		ai_chance = { factor = 70 }
		custom_tooltip = khom_civilwar_offer_to_join_ma_hoang_tt
		hidden_effect = {
			Y67 = {
				country_event = {
					id = khom_civilwar.11
					days = 1
				}
			}
		}
	}
	
	option = {	#It's not in our interests
		name = khom_civilwar.10.b
		ai_chance = {
			factor = 30
			modifier = {
				factor = 0
				Y67 = {
					ai = no
				}
			}
		}
		hidden_effect = {
			remove_historical_friend = Y67
			Y67 = {
				remove_historical_friend = Y63
			}
		}
	}
}

country_event = { #Ma Hoang recieves offer from Verkal Ozovar
	id = khom_civilwar.11
	title = khom_civilwar.11.t
	desc = khom_civilwar.11.d
	picture = COURT_eventPicture

	is_triggered_only = yes
	
	option = {	#accept help
		name = khom_civilwar.11.a
		ai_chance = { factor = 100 }
		custom_tooltip = khom_civilwar_accept_verkal_ozovar_offer_tt
		set_global_flag = khom_civilwar_verkalozovar_joins
		create_alliance = Y63
		add_opinion = {
			who = Y63
			modifier = khom_civilwar_allied_in_war
		}
		reverse_add_opinion = {
			who = Y63
			modifier = khom_civilwar_allied_in_war
		}
		add_country_modifier = {
			name = khom_civilwar_dwarven_arms
			duration = 9125
		}
		Y71 = {
			add_country_modifier = {
				name = khom_civilwar_dwarven_arms
				duration = 9125
			}
		}
		hidden_effect = {
			Y63 = {
				country_event = {
					id = khom_civilwar.12
				}
			}
		}
	}
	option = {	#refuse help
		name = khom_civilwar.11.b
		ai_chance = { factor = 0 }
		reverse_add_opinion = {
			who = Y63
			modifier = khom_civilwar_spurned_offer
		}
		Y63 = {
			country_event = {
				id = khom_civilwar.13
			}
		}
	}
}

country_event = { #Verkal Ozovar, Ma Hoang accepted
	id = khom_civilwar.12
	title = khom_civilwar.12.t
	desc = khom_civilwar.12.d
	picture = COURT_eventPicture

	is_triggered_only = yes
	
	option = {	#excellent
		name = khom_civilwar.12.a
		ai_chance = { factor = 100 }
		join_all_offensive_wars_of = Y67
		reverse_add_opinion = {
			who = Y66
			modifier = khom_civilwar_aided_enemy
		}
		hidden_effect = {
			remove_historical_friend = Y67
			Y67 = {
				remove_historical_friend = Y63
			}
		}
	}
}

country_event = { #Verkal Ozovar, Ma Hoang refused
	id = khom_civilwar.13
	title = khom_civilwar.13.t
	desc = khom_civilwar.13.d
	picture = COURT_eventPicture

	is_triggered_only = yes
	
	option = {	#bastards
		name = khom_civilwar.13.a
		ai_chance = { factor = 100 }
		hidden_effect = {
			remove_historical_friend = Y67
			Y67 = {
				remove_historical_friend = Y63
			}
		}
	}
}

country_event = { #Hebat Hari choose whether to join
	id = khom_civilwar.15
	title = khom_civilwar.15.t
	desc = khom_civilwar.15.d
	picture = COURT_eventPicture
	
	fire_only_once = yes

	is_triggered_only = yes
	
	option = {	#we will help our friends!
		name = khom_civilwar.15.a
		ai_chance = { factor = 90 }
		custom_tooltip = khom_civilwar_offer_to_join_hon_sai_tt
		Y66 = {
			country_event = {
				id = khom_civilwar.16
				days = 1
			}
		}
	}
	
	option = {	#bitch out
		name = khom_civilwar.15.b
		ai_chance = {
			factor = 10
			modifier = {
				factor = 0
				Y66 = {
					ai = no
				}
			}
		}
	}
}

country_event = { #Hon Sai recieves offer from Hebat Hari
	id = khom_civilwar.16
	title = khom_civilwar.16.t
	desc = khom_civilwar.16.d
	picture = COURT_eventPicture

	is_triggered_only = yes
	
	option = {	#accept help
		name = khom_civilwar.16.a
		ai_chance = { factor = 100 }
		custom_tooltip = khom_civilwar_accept_hebat_hari_offer_tt
		set_global_flag = khom_civilwar_hebathari_joins
		create_alliance = Y76
		add_opinion = {
			who = Y76
			modifier = khom_civilwar_allied_in_war
		}
		reverse_add_opinion = {
			who = Y76
			modifier = khom_civilwar_allied_in_war
		}
		hidden_effect = {
			Y76 = {
				country_event = {
					id = khom_civilwar.17
				}
			}
		}
	}
	option = {	#refuse help
		name = khom_civilwar.16.b
		ai_chance = { factor = 0 }
		reverse_add_opinion = {
			who = Y76
			modifier = khom_civilwar_spurned_offer
		}
		hidden_effect = {
			Y76 = {
				country_event = {
					id = khom_civilwar.18
				}
			}
		}
	}
}

country_event = { #Hebat Hari, Hon Sai accepted
	id = khom_civilwar.17
	title = khom_civilwar.17.t
	desc = khom_civilwar.17.d
	picture = COURT_eventPicture

	is_triggered_only = yes
	
	option = {	#excellent
		name = khom_civilwar.17.a
		ai_chance = { factor = 100 }
		join_all_defensive_wars_of = Y66
		reverse_add_opinion = {
			who = Y67
			modifier = khom_civilwar_aided_enemy
		}
		capital_scope = {
			ROOT = {
				infantry = PREV
				infantry = PREV
				infantry = PREV
			}
		}
	}
}

country_event = { #Hebat Hari, Hon Sai refused
	id = khom_civilwar.18
	title = khom_civilwar.18.t
	desc = khom_civilwar.18.d
	picture = COURT_eventPicture

	is_triggered_only = yes
	
	option = {	#bastards
		name = khom_civilwar.18.a
		ai_chance = { factor = 100 }
	}
}

country_event = { #Sirtan choose who to join
	id = khom_civilwar.20
	title = khom_civilwar.20.t
	desc = khom_civilwar.20.d
	picture = HORDE_ON_HORSEBACK_eventPicture

	fire_only_once = yes
	
	is_triggered_only = yes
	
	option = {	#reach out to Ma Hoang
		name = khom_civilwar.20.a
		ai_chance = {
			factor = 40
			modifier = {
				factor = 1.5
				NOT = {
					has_global_flag = khom_civilwar_verkalozovar_joins
				}
			}
			modifier = {
				factor = 0.25
				has_global_flag = khom_civilwar_verkalozovar_joins
			}
		}
		trigger = {
			NOT = {
				has_country_flag = khom_civilwar_mahoang_refuses_sirtan
			}
		}
		custom_tooltip = khom_civilwar_offer_to_join_ma_hoang_tt
		Y67 = {
			country_event = {
				id = khom_civilwar.22
				days = 1
			}
		}
	}
	option = {	#reach out to Hon Sai
		name = khom_civilwar.20.b
		ai_chance = { factor = 40 }
		trigger = {
			NOT = {
				has_country_flag = khom_civilwar_honsai_refuses_sirtan
			}
		}
		custom_tooltip = khom_civilwar_offer_to_join_hon_sai_tt
		Y66 = {
			country_event = {
				id = khom_civilwar.24
				days = 1
			}
		}
	}
	option = {	#raid everyone
		name = khom_civilwar.20.c
		ai_chance = { factor = 20 }
		set_global_flag = khom_civilwar_sirtan_is_raiding_everyone
		add_country_modifier = {
			name = khom_civilwar_active_raiders
			duration = 5475
		}
		Y66 = {
			add_country_modifier = {
				name = khom_civilwar_desert_raids
				duration = 5475
			}
		}
		Y67 = {
			add_country_modifier = {
				name = khom_civilwar_desert_raids
				duration = 5475
			}
		}
		Y71 = {
			add_country_modifier = {
				name = khom_civilwar_desert_raids
				duration = 5475
			}
		}
		Y72 = {
			add_country_modifier = {
				name = khom_civilwar_desert_raids
				duration = 5475
			}
		}
		if = {
			limit = {
				ai = yes
			}
			add_truce_with = Y66
			add_truce_with = Y67
			add_truce_with = Y71
			add_truce_with = Y72
		}
	}
}

country_event = { #Sirtan choose who to join recursive version
	id = khom_civilwar.21
	title = khom_civilwar.21.t
	desc = {
		trigger = { 
			NOT = {
				AND = { 
					has_country_flag = khom_civilwar_mahoang_refuses_sirtan
					has_country_flag = khom_civilwar_honsai_refuses_sirtan
				}
			}
		}
		desc = khom_civilwar.21.d
	}
	desc = {
		trigger = { 
			AND = { 
				has_country_flag = khom_civilwar_mahoang_refuses_sirtan
				has_country_flag = khom_civilwar_honsai_refuses_sirtan
			}
		}
		desc = khom_civilwar.21.dbothdecline
	}
	picture = HORDE_ON_HORSEBACK_eventPicture

	is_triggered_only = yes
	
	option = {	#reach out to Ma Hoang
		name = khom_civilwar.20.a
		ai_chance = {
			factor = 67
			modifier = {
				factor = 1.5
				NOT = {
					has_global_flag = khom_civilwar_verkalozovar_joins
				}
			}
			modifier = {
				factor = 0.25
				has_global_flag = khom_civilwar_verkalozovar_joins
			}
		}
		trigger = {
			NOT = {
				has_country_flag = khom_civilwar_mahoang_refuses_sirtan
			}
		}
		custom_tooltip = khom_civilwar_offer_to_join_ma_hoang_tt
		Y67 = {
			country_event = {
				id = khom_civilwar.22
				days = 1
			}
		}
	}
	option = {	#reach out to Hon Sai
		name = khom_civilwar.20.b
		ai_chance = { factor = 67 }
		trigger = {
			NOT = {
				has_country_flag = khom_civilwar_honsai_refuses_sirtan
			}
		}
		custom_tooltip = khom_civilwar_offer_to_join_hon_sai_tt
		Y66 = {
			country_event = {
				id = khom_civilwar.24
				days = 1
			}
		}
	}
	option = {	#raid everyone
		name = khom_civilwar.20.c
		ai_chance = { factor = 33 }
		set_global_flag = khom_civilwar_sirtan_is_raiding_everyone
		add_country_modifier = {
			name = khom_civilwar_active_raiders
			duration = 5475
		}
		Y66 = {
			add_country_modifier = {
				name = khom_civilwar_desert_raids
				duration = 5475
			}
		}
		Y67 = {
			add_country_modifier = {
				name = khom_civilwar_desert_raids
				duration = 5475
			}
		}
		Y71 = {
			add_country_modifier = {
				name = khom_civilwar_desert_raids
				duration = 5475
			}
		}
		Y72 = {
			add_country_modifier = {
				name = khom_civilwar_desert_raids
				duration = 5475
			}
		}
		if = {
			limit = {
				ai = yes
			}
			add_truce_with = Y66
			add_truce_with = Y67
			add_truce_with = Y71
			add_truce_with = Y72
		}
	}
}

country_event = { #Ma Hoang recieves offer from Sirtan
	id = khom_civilwar.22
	title = khom_civilwar.22.t
	desc = khom_civilwar.22.d
	picture = HORDE_ON_HORSEBACK_eventPicture

	is_triggered_only = yes
	
	option = {	#accept help
		name = khom_civilwar.22.a
		ai_chance = { factor = 100 }
		custom_tooltip = khom_civilwar_accept_sirtan_offer_tt
		set_global_flag = khom_civilwar_sirtan_joins_mahoang
		add_country_modifier = {
			name = khom_civilwar_friendly_raiders
			duration = 9125
		}
		Y71 = {
			add_country_modifier = {
				name = khom_civilwar_friendly_raiders
				duration = 9125
			}
		}
		Y66 = {
			add_country_modifier = {
				name = khom_civilwar_desert_raids
				duration = 5475
			}
		}
		Y72 = {
			add_country_modifier = {
				name = khom_civilwar_desert_raids
				duration = 5475
			}
		}
		add_opinion = {
			who = Y73
			modifier = khom_civilwar_struck_a_deal
		}
		reverse_add_opinion = {
			who = Y73
			modifier = khom_civilwar_struck_a_deal
		}
		hidden_effect = {
			Y73 = {
				country_event = {
					id = khom_civilwar.23
				}
			}
		}
	}
	
	option = {	#refuse help
		name = khom_civilwar.22.b
		ai_chance = { factor = 0 }
		Y73 = {
			set_country_flag = khom_civilwar_mahoang_refuses_sirtan
		}
		reverse_add_opinion = {
			who = Y73
			modifier = khom_civilwar_spurned_offer
		}
		hidden_effect = {
			Y73 = {
				country_event = {
					id = khom_civilwar.21
				}
			}
		}
	}
}

country_event = { #Sirtan, Ma Hoang accepted
	id = khom_civilwar.23
	title = khom_civilwar.23.t
	desc = khom_civilwar.23.d
	picture = HORDE_ON_HORSEBACK_eventPicture

	is_triggered_only = yes
	
	option = {	#excellent
		name = khom_civilwar.23.a
		ai_chance = { factor = 100 }
		join_all_offensive_wars_of = Y67
		add_country_modifier = {
			name = khom_civilwar_raiding_fervor
			duration = 9125
		}
		capital_scope = {
			ROOT = {
				cavalry = PREV
				cavalry = PREV
			}
		}
		reverse_add_opinion = {
			who = Y66
			modifier = khom_civilwar_aided_enemy
		}
	}
}

country_event = { #Hon Sai recieves offer from Sirtan
	id = khom_civilwar.24
	title = khom_civilwar.24.t
	desc = khom_civilwar.24.d
	picture = HORDE_ON_HORSEBACK_eventPicture

	is_triggered_only = yes
	
	option = {	#accept help
		name = khom_civilwar.24.a
		ai_chance = { factor = 100 }
		custom_tooltip = khom_civilwar_accept_sirtan_offer_tt
		set_global_flag = khom_civilwar_sirtan_joins_honsai
		add_country_modifier = {
			name = khom_civilwar_friendly_raiders
			duration = 9125
		}
		Y72 = {
			add_country_modifier = {
				name = khom_civilwar_friendly_raiders
				duration = 9125
			}
		}
		Y67 = {
			add_country_modifier = {
				name = khom_civilwar_desert_raids
				duration = 5475
			}
		}
		Y71 = {
			add_country_modifier = {
				name = khom_civilwar_desert_raids
				duration = 5475
			}
		}
		add_opinion = {
			who = Y73
			modifier = khom_civilwar_struck_a_deal
		}
		reverse_add_opinion = {
			who = Y73
			modifier = khom_civilwar_struck_a_deal
		}
		hidden_effect = {
			Y73 = {
				country_event = {
					id = khom_civilwar.25
				}
			}
		}
	}
	option = {	#refuse help
		name = khom_civilwar.24.b
		ai_chance = { factor = 0 }
		Y73 = {
			set_country_flag = khom_civilwar_honsai_refuses_sirtan
		}
		reverse_add_opinion = {
			who = Y73
			modifier = khom_civilwar_spurned_offer
		}
		hidden_effect = {
			Y73 = {
				country_event = {
					id = khom_civilwar.21
				}
			}
		}
	}
}

country_event = { #Sirtan, Hon Sai accepted
	id = khom_civilwar.25
	title = khom_civilwar.25.t
	desc = khom_civilwar.25.d
	picture = HORDE_ON_HORSEBACK_eventPicture

	is_triggered_only = yes
	
	option = {	#excellent
		name = khom_civilwar.25.a
		ai_chance = { factor = 100 }
		join_all_defensive_wars_of = Y66
		add_country_modifier = {
			name = khom_civilwar_raiding_fervor
			duration = 9125
		}
		capital_scope = {
			ROOT = {
				cavalry = PREV
				cavalry = PREV
			}
		}
		reverse_add_opinion = {
			who = Y67
			modifier = khom_civilwar_aided_enemy
		}
	}
}

country_event = { #Ma Hoang gets mercenary support
	id = khom_civilwar.26
	title = khom_civilwar.26.t
	desc = khom_civilwar.26.d
	picture = CHINESE_GENERAL_eventPicture
	
	fire_only_once = yes
	
	is_triggered_only = yes
	
	option = {	#sign the contract, hopefully we don't regret it down the line
		name = khom_civilwar.26.a
		ai_chance = { factor = 100 }
		set_country_flag = khom_civilwar_hired_mercs
		add_treasury = -75
		define_general = {
			name = "Borleah"
			shock = 3
			fire = 3
			manuever = 6
			siege = 2
			trait = defensive_planner_personality
		}
		add_country_modifier = {
			name = khom_civilwar_favorable_mercenary_contracts
			duration = 7300
		}
		Y71 = {
			add_country_modifier = {
				name = khom_civilwar_favorable_mercenary_contracts
				duration = 7300
			}
		}
		if = {
			limit = {
				has_global_flag = khom_civilwar_verkalozovar_joins
			}
			Y63 = {
				add_country_modifier = {
					name = khom_civilwar_favorable_mercenary_contracts
					duration = 7300
				}
			}
		}
		if = {
			limit = {
				has_global_flag = khom_civilwar_sirtan_joins_mahoang
			}
			Y73 = {
				add_country_modifier = {
					name = khom_civilwar_favorable_mercenary_contracts
					duration = 7300
				}
			}
		}
		Y66 = {
			add_country_modifier = {
				name = khom_civilwar_unfavorable_mercenary_contracts
				duration = 7300
			}
		}
		Y72 = {
			add_country_modifier = {
				name = khom_civilwar_unfavorable_mercenary_contracts
				duration = 7300
			}
		}
		if = {
			limit = {
				has_global_flag = khom_civilwar_hebathari_joins
			}
			Y76 = {
				add_country_modifier = {
					name = khom_civilwar_unfavorable_mercenary_contracts
					duration = 7300
				}
			}
		}
		if = {
			limit = {
				has_global_flag = khom_civilwar_sirtan_joins_honsai
			}
			Y73 = {
				add_country_modifier = {
					name = khom_civilwar_unfavorable_mercenary_contracts
					duration = 7300
				}
			}
		}
	}
	option = {	#refuse offer
		name = khom_civilwar.26.b
		ai_chance = { factor = 0 }
		add_country_modifier = {
			name = khom_civilwar_abundance_of_mercenaries
			duration = 7300
		}
		Y66 = {
			add_country_modifier = {
				name = khom_civilwar_abundance_of_mercenaries
				duration = 7300
			}
		}
		Y71 = {
			add_country_modifier = {
				name = khom_civilwar_abundance_of_mercenaries
				duration = 7300
			}
		}
		Y72 = {
			add_country_modifier = {
				name = khom_civilwar_abundance_of_mercenaries
				duration = 7300
			}
		}
		if = {
			limit = {
				has_global_flag = khom_civilwar_verkalozovar_joins
			}
			Y63 = {
				add_country_modifier = {
					name = khom_civilwar_abundance_of_mercenaries
					duration = 7300
				}
			}
		}
		if = {
			limit = {
				has_global_flag = khom_civilwar_hebathari_joins
			}
			Y76 = {
				add_country_modifier = {
					name = khom_civilwar_abundance_of_mercenaries
					duration = 7300
				}
			}
		}
		if = {
			limit = {
				OR = {
					has_global_flag = khom_civilwar_sirtan_joins_honsai
					has_global_flag = khom_civilwar_sirtan_joins_mahoang
				}
			}
			Y73 = {
				add_country_modifier = {
					name = khom_civilwar_abundance_of_mercenaries
					duration = 7300
				}
			}
		}
	}
}
	#Post War events
country_event = { #Ma Hoang wins part 1
	id = khom_civilwar.49
	title = khom_civilwar.49.t
	desc = {
		trigger = { has_ruler = Dinh }
		desc = khom_civilwar.49.d
	}
	desc = {
		trigger = { NOT = { has_ruler = Dinh } }
		desc = khom_civilwar.49.dnodinh
	}
	picture = COURT_eventPicture
	
	fire_only_once = yes
	
	is_triggered_only = yes
	
	immediate = {
		hidden_effect = {
			set_global_flag = khom_civilwar_mahoang_won_war
			inherit = Y66
			khom_ma_area = {
				add_core = Y67
			}
			4696 = {
				add_core = Y67
			}
			4704 = {
				add_core = Y67
			}
			4762 = {
				add_core = Y67
			}
			Y71 = {
				country_event = {
					id = khom_civilwar.53
				}
			}
			Y72 = {
				country_event = {
					id = khom_civilwar.54
				}
			}
			if = {
				limit = {
					has_global_flag = khom_civilwar_verkalozovar_joins
				}
				Y63 = {
					country_event = {
						id = khom_civilwar.55
					}
				}
			}
			if = {
				limit = {
					has_global_flag = khom_civilwar_hebathari_joins
				}
				Y76 = {
					country_event = {
						id = khom_civilwar.56
					}
				}
			}
			if = {
				limit = {
					has_global_flag = khom_civilwar_sirtan_joins_mahoang
				}
				Y73 = {
					country_event = {
						id = khom_civilwar.60
					}
				}
			}
			if = {
				limit = {
					has_global_flag = khom_civilwar_sirtan_joins_honsai
				}
				Y73 = {
					country_event = {
						id = khom_civilwar.61
					}
				}
			}
			Y73 = {
				remove_country_modifier = khom_civilwar_active_raiders
			}
			Y66 = {
				remove_country_modifier = khom_civilwar_desert_raids
			}
			Y67 = {
				remove_country_modifier = khom_civilwar_desert_raids
			}
			Y71 = {
				remove_country_modifier = khom_civilwar_desert_raids
			}
			Y72 = {
				remove_country_modifier = khom_civilwar_desert_raids
			}
		}
	}
	
	option = {	#VICTORY!
		name = khom_civilwar.49.a
		ai_chance = { factor = 100 }
		country_event = {
			id = khom_civilwar.50
		}
	}
}

country_event = { #Ma Hoang wins part 2
	id = khom_civilwar.50
	title = khom_civilwar.50.t
	desc = khom_civilwar.50.d
	picture = COURT_eventPicture
	
	major = yes
	major_trigger = {
		capital_scope = {
			superregion = south_haless_superregion
		}
	}
	
	fire_only_once = yes
	
	is_triggered_only = yes
	
	option = {	#VICTORY!
		name = khom_civilwar.50.a
		ai_chance = { factor = 100 }
		add_country_modifier = {
			name = khom_civilwar_heir_to_the_baihon_xinh
			duration = 18250
		}
		4961 = {
			add_core = Y67
		}
		4699 = {
			add_core = Y67
		}
		4701 = {
			add_core = Y67
		}
		nagon_area = {
			add_permanent_claim = Y67
		}
		if = {
			limit = {
				has_global_flag = khom_civilwar_sirtan_joins_mahoang
			}
			custom_tooltip = khom_civilwar_sirtan_takes_their_due_tt
		}
	}
}

country_event = { #Hon Sai wins
	id = khom_civilwar.51
	title = khom_civilwar.51.t
	desc = khom_civilwar.51.d
	picture = COURT_eventPicture
	
	major = yes
	major_trigger = {
		capital_scope = {
			superregion = south_haless_superregion
		}
	}
	
	fire_only_once = yes
	
	is_triggered_only = yes
	
	immediate = {
		hidden_effect = {
			set_global_flag = khom_civilwar_honsai_won_war
			inherit = Y67
			phonan_area = {
				add_core = Y66
			}
			ananhu_area = {
				add_core = Y66
			}
			4764 = {
				add_core = Y66
			}
			Y71 = {
				country_event = {
					id = khom_civilwar.70
				}
			}
			Y72 = {
				country_event = {
					id = khom_civilwar.71
				}
			}
			if = {
				limit = {
					has_global_flag = khom_civilwar_verkalozovar_joins
				}
				Y63 = {
					country_event = {
						id = khom_civilwar.72
					}
				}
			}
			if = {
				limit = {
					has_global_flag = khom_civilwar_hebathari_joins
				}
				Y76 = {
					country_event = {
						id = khom_civilwar.73
					}
				}
			}
			if = {
				limit = {
					has_global_flag = khom_civilwar_sirtan_joins_honsai
				}
				Y73 = {
					country_event = {
						id = khom_civilwar.74
					}
				}
			}
			if = {
				limit = {
					has_global_flag = khom_civilwar_sirtan_joins_mahoang
				}
				Y73 = {
					country_event = {
						id = khom_civilwar.75
					}
				}
			}
			Y73 = {
				remove_country_modifier = khom_civilwar_active_raiders
				remove_country_modifier = khom_civilwar_unfavorable_mercenary_contracts
			}
			Y66 = {
				remove_country_modifier = khom_civilwar_desert_raids
				remove_country_modifier = khom_civilwar_unfavorable_mercenary_contracts
			}
			Y67 = {
				remove_country_modifier = khom_civilwar_desert_raids
			}
			Y71 = {
				remove_country_modifier = khom_civilwar_desert_raids
			}
			Y72 = {
				remove_country_modifier = khom_civilwar_desert_raids
				remove_country_modifier = khom_civilwar_unfavorable_mercenary_contracts
			}
			Y76 = {
				remove_country_modifier = khom_civilwar_unfavorable_mercenary_contracts
			}
		}
	}
	
	option = {	#VICTORY!
		name = khom_civilwar.51.a
		ai_chance = { factor = 100 }
		add_country_modifier = {
			name = khom_civilwar_defended_the_legacy_of_the_baihon_xihn
			duration = 18250
		}
		nagon_area = {
			add_permanent_claim = Y66
		}
		if = {
			limit = {
				has_global_flag = khom_civilwar_hebathari_joins
			}
			custom_tooltip = khom_civilwar_aid_to_hebat_hari_tt
			add_country_modifier = {
				name = khom_civilwar_supporting_hebat_hari
				duration = 10950
			}
		}
		if = {
			limit = {
				has_global_flag = khom_civilwar_sirtan_joins_honsai
			}
			custom_tooltip = khom_civilwar_sirtan_takes_their_due_tt
		}
	}
}

country_event = { #War has been going too long, end it
	id = khom_civilwar.52
	title = khom_civilwar.52.t
	desc = khom_civilwar.52.d
	picture = FAMINE_eventPicture
	
	major = yes
	major_trigger = {
		capital_scope = {
			superregion = south_haless_superregion
		}
	}
	
	fire_only_once = yes
	
	mean_time_to_happen = {
		days = 180
		modifier = {
			factor = 0.5
			is_in_war = {
				duration = 7300
			}
		}
	}
	
	trigger = {
		tag = Y67
		is_in_war = {
			casus_belli = cb_war_for_the_mantle_of_baihon_xinh
		}
		is_in_war = {
			duration = 5400
		}
		war_score_against = {
				who = Y66
				value = -30
		}
		NOT = {
			war_score_against = {
				who = Y66
				value = 30
			}
		}
	}
	
	immediate = {
		hidden_effect = {
			set_global_flag = khom_civilwar_war_was_inconclusive
			white_peace = Y66
			Y73 = {
				remove_country_modifier = khom_civilwar_active_raiders
			}
		}
	}
	
	option = {	#It's over... for now
		name = khom_civilwar.52.a
		ai_chance = { factor = 100 }
		Y66 = {
			every_owned_province = {
				add_permanent_claim = Y67
			}
		}
		Y67 = {
			every_owned_province = {
				add_permanent_claim = Y66
			}
		}
	}
}

	#Ma Hoang victory events
country_event = { #Kudet Kai victory rewards
	id = khom_civilwar.53
	title = khom_civilwar.53.t
	desc = khom_civilwar.53.d
	picture = COURT_eventPicture
	
	is_triggered_only = yes
	
	option = {	#VICTORY!
		name = khom_civilwar.53.a
		ai_chance = { factor = 100 }
		#4744 = {
		#	cede_province = Y71
		#}
		4745 = {
			cede_province = Y71
		}
		#4746 = {
		#	cede_province = Y71
		#}
		#4747 = {
		#	cede_province = Y71
		#}
		4748 = {
			cede_province = Y71
		}
		binhrunghin_area = {
			cede_province = Y71
		}
		if = {
			limit = {
				has_global_flag = khom_civilwar_sirtan_joins_mahoang
			}
			custom_tooltip = khom_civilwar_sirtan_takes_their_due_tt
		}
	}
}

country_event = { #Chien Binhrung loss
	id = khom_civilwar.54
	title = khom_civilwar.54.t
	desc = khom_civilwar.54.d
	picture = COURT_eventPicture
	
	is_triggered_only = yes
	
	option = {	#OOF!
		name = khom_civilwar.54.a
		ai_chance = { factor = 100 }
		add_prestige = -50
		add_country_modifier = {
			name = khom_civilwar_broken_spirit
			duration = 9125
		}
	}
}

country_event = { #Verkal Ozovar victory rewards
	id = khom_civilwar.55
	title = khom_civilwar.55.t
	desc = khom_civilwar.55.d
	picture = COURT_eventPicture
	
	is_triggered_only = yes
	
	option = {	#VICTORY!
		name = khom_civilwar.55.a
		ai_chance = { factor = 100 }
		add_prestige = 50
	}
}

country_event = { #Hebat Hari loss
	id = khom_civilwar.56
	title = khom_civilwar.56.t
	desc = khom_civilwar.56.d
	picture = COURT_eventPicture
	
	is_triggered_only = yes
	
	option = {	#Suck up to Ma Hoang
		name = khom_civilwar.56.a
		ai_chance = { factor = 50 }
		Y67 = {
			country_event = {
				id = khom_civilwar.57
				days = 1
			}
		}
	}
	
	option = {	#They are unworthy
		name = khom_civilwar.56.b
		ai_chance = { factor = 50 }
	}
}

country_event = { #Ma Hoang recieves oath of fealty from Hebat Hari
	id = khom_civilwar.57
	title = khom_civilwar.57.t
	desc = khom_civilwar.57.d
	picture = COURT_eventPicture

	is_triggered_only = yes
	
	option = {	#make Hebat Hari a march
		name = khom_civilwar.57.a
		ai_chance = { factor = 100 }
		create_subject = {
			subject_type = march
			subject = Y76
		}
		Y76 = {
			add_liberty_desire = -100
		}
		hidden_effect = {
			Y76 = {
				country_event = {
					id = khom_civilwar.58
				}
			}
		}
	}
	option = {	#refuse deal
		name = khom_civilwar.57.b
		ai_chance = { factor = 0 }
		reverse_add_opinion = {
			who = Y76
			modifier = khom_civilwar_spurned_offer
		}
		hidden_effect = {
			Y76 = {
				country_event = {
					id = khom_civilwar.59
				}
			}
		}
	}
}

country_event = { #Hebat Hari, Ma Hoang accepted
	id = khom_civilwar.58
	title = khom_civilwar.58.t
	desc = khom_civilwar.58.d
	picture = COURT_eventPicture

	is_triggered_only = yes
	
	option = {	#excellent
		name = khom_civilwar.58.a
		ai_chance = { factor = 100 }
	}
}

country_event = { #Hebat Hari, Ma Hoang refused
	id = khom_civilwar.59
	title = khom_civilwar.59.t
	desc = khom_civilwar.59.d
	picture = COURT_eventPicture

	is_triggered_only = yes
	
	option = {	#but why?
		name = khom_civilwar.59.a
		ai_chance = { factor = 100 }
	}
}

country_event = { #Sirtan join Ma Hoang and win
	id = khom_civilwar.60
	title = khom_civilwar.60.t
	desc = khom_civilwar.60.d
	picture = BORDER_TENSION_eventPicture
	
	is_triggered_only = yes
	
	option = {	#VICTORY!
		name = khom_civilwar.60.a
		ai_chance = { factor = 100 }
		khom_ma_area = {
			add_devastation = 50
			remove_loot = {
				who = ROOT
				amount = 100
			}
		}
		4696 = {
			add_devastation = 50
			remove_loot = {
				who = ROOT
				amount = 100
			}
		}
		4704 = {
			add_devastation = 50
			remove_loot = {
				who = ROOT
				amount = 100
			}
		}
		4762 = {
			add_devastation = 50
			remove_loot = {
				who = ROOT
				amount = 100
			}
		}
		binhrunghin_area = {
			add_devastation = 50
			remove_loot = {
				who = ROOT
				amount = 100
			}
		}
		add_tribal_allegiance = 25
		add_prestige = 50
		add_treasury = 1000
		add_country_modifier = {
			name = khom_civilwar_riches_of_thidinkai
			duration = 10950
		}
	}
}

country_event = { #Sirtan join Hon Sai and lose
	id = khom_civilwar.61
	title = khom_civilwar.61.t
	desc = khom_civilwar.61.d
	picture = 20_Monsoon_eventPicture
	
	is_triggered_only = yes
	
	option = {	#This is awkward
		name = khom_civilwar.61.a
		ai_chance = { factor = 100 }
		add_prestige = -25
	}
}

	#Hon Sai victory events
country_event = { #Kudet Kai loss
	id = khom_civilwar.70
	title = khom_civilwar.70.t
	desc = khom_civilwar.70.d
	picture = COURT_eventPicture
	
	is_triggered_only = yes
	
	option = {	#OOF!
		name = khom_civilwar.70.a
		ai_chance = { factor = 100 }
		set_capital = 4755
		add_prestige = -50
		add_country_modifier = {
			name = khom_civilwar_broken_spirit
			duration = 9125
		}
	}
}

country_event = { #Chien Binhrung victory rewards
	id = khom_civilwar.71
	title = khom_civilwar.71.t
	desc = khom_civilwar.71.d
	picture = COURT_eventPicture
	
	is_triggered_only = yes
	
	option = {	#VICTORY!
		name = khom_civilwar.71.a
		ai_chance = { factor = 100 }
		#4749 = {
		#	cede_province = Y72
		#}
		#4751 = {
		#	cede_province = Y72
		#}
		4752 = {
			cede_province = Y72
		}
		4753 = {
			cede_province = Y72
		}
		4944 = {
			cede_province = Y72
		}
		kasainam_area = {
			cede_province = Y72
		}
		if = {
			limit = {
				has_global_flag = khom_civilwar_sirtan_joins_honsai
			}
			custom_tooltip = khom_civilwar_sirtan_takes_their_due_tt
		}
	}
}

country_event = { #Verkal Ozovar loss
	id = khom_civilwar.72
	title = khom_civilwar.72.t
	desc = khom_civilwar.72.d
	picture = COURT_eventPicture
	
	is_triggered_only = yes
	
	option = {	#oof
		name = khom_civilwar.72.a
		ai_chance = { factor = 100 }
		add_prestige = -25
	}
}

country_event = { #Hebat Hari win
	id = khom_civilwar.73
	title = khom_civilwar.73.t
	desc = khom_civilwar.73.d
	picture = COURT_eventPicture
	
	is_triggered_only = yes
	
	option = {	#We shall return to our place as kings
		name = khom_civilwar.73.a
		ai_chance = { factor = 100 }
		add_country_modifier = {
			name = khom_civilwar_khom_support
			duration = 10950
		}
	}
}

country_event = { #Sirtan join Hon Sai and win
	id = khom_civilwar.74
	title = khom_civilwar.74.t
	desc = khom_civilwar.74.d
	picture = BORDER_TENSION_eventPicture
	
	is_triggered_only = yes
	
	option = {	#VICTORY!
		name = khom_civilwar.74.a
		ai_chance = { factor = 100 }
		phonan_area = {
			add_devastation = 50
			remove_loot = {
				who = ROOT
				amount = 100
			}
		}
		ananhu_area = {
			add_devastation = 50
			remove_loot = {
				who = ROOT
				amount = 100
			}
		}
		4764 = {
			add_devastation = 50
			remove_loot = {
				who = ROOT
				amount = 100
			}
		}
		kasainam_area = {
			add_devastation = 50
			remove_loot = {
				who = ROOT
				amount = 100
			}
		}
		4752 = {
			add_devastation = 50
			remove_loot = {
				who = ROOT
				amount = 100
			}
		}
		4753 = {
			add_devastation = 50
			remove_loot = {
				who = ROOT
				amount = 100
			}
		}
		add_tribal_allegiance = 25
		add_prestige = 50
		add_treasury = 1000
		add_country_modifier = {
			name = khom_civilwar_riches_of_thidinkai
			duration = 10950
		}
	}
}

country_event = { #Sirtan join Ma Hoang and lose
	id = khom_civilwar.75
	title = khom_civilwar.75.t
	desc = khom_civilwar.75.d
	picture = 20_Monsoon_eventPicture
	
	is_triggered_only = yes
	
	option = {	#This is awkward
		name = khom_civilwar.75.a
		ai_chance = { factor = 100 }
		add_prestige = -25
	}
}